{
  "photos": {
    "page": 1,
    "pages": 228,
    "perpage": 100,
    "total": "22768",
    "photo": [
      {
        "id": "33250133563",
        "owner": "61495424@N00",
        "secret": "a8be372433",
        "server": "2821",
        "farm": 3,
        "title": "DSC01774",
        "ispublic": 1,
        "isfriend": 0,
        "isfamily": 0
      },
      {
        "id": "33932467091",
        "owner": "61495424@N00",
        "secret": "76a6a42325",
        "server": "2948",
        "farm": 3,
        "title": "DSC01773",
        "ispublic": 1,
        "isfriend": 0,
        "isfamily": 0
      },
      {
        "id": "33250135053",
        "owner": "61495424@N00",
        "secret": "296e0d489d",
        "server": "2812",
        "farm": 3,
        "title": "DSC01769",
        "ispublic": 1,
        "isfriend": 0,
        "isfamily": 0
      },
      {
        "id": "33932467981",
        "owner": "61495424@N00",
        "secret": "8216793ac8",
        "server": "2890",
        "farm": 3,
        "title": "DSC01768",
        "ispublic": 1,
        "isfriend": 0,
        "isfamily": 0
      },
      {
        "id": "33250136343",
        "owner": "61495424@N00",
        "secret": "4113cbff09",
        "server": "3950",
        "farm": 4,
        "title": "DSC01767",
        "ispublic": 1,
        "isfriend": 0,
        "isfamily": 0
      },
      {
        "id": "33250136593",
        "owner": "61495424@N00",
        "secret": "3e26752092",
        "server": "2945",
        "farm": 3,
        "title": "DSC01766",
        "ispublic": 1,
        "isfriend": 0,
        "isfamily": 0
      },
      {
        "id": "33932468271",
        "owner": "61495424@N00",
        "secret": "7bb97f110d",
        "server": "3947",
        "farm": 4,
        "title": "DSC01764",
        "ispublic": 1,
        "isfriend": 0,
        "isfamily": 0
      },
      {
        "id": "33250137053",
        "owner": "61495424@N00",
        "secret": "321dbd2d57",
        "server": "2878",
        "farm": 3,
        "title": "DSC01762",
        "ispublic": 1,
        "isfriend": 0,
        "isfamily": 0
      },
      {
        "id": "34021246926",
        "owner": "61495424@N00",
        "secret": "48b5c33a85",
        "server": "2884",
        "farm": 3,
        "title": "DSC01761",
        "ispublic": 1,
        "isfriend": 0,
        "isfamily": 0
      },
      {
        "id": "33905221002",
        "owner": "61495424@N00",
        "secret": "dae1910cc7",
        "server": "2830",
        "farm": 3,
        "title": "DSC01760",
        "ispublic": 1,
        "isfriend": 0,
        "isfamily": 0
      },
      {
        "id": "33905221252",
        "owner": "61495424@N00",
        "secret": "dd687a89ed",
        "server": "2893",
        "farm": 3,
        "title": "DSC01755",
        "ispublic": 1,
        "isfriend": 0,
        "isfamily": 0
      },
      {
        "id": "34021248606",
        "owner": "61495424@N00",
        "secret": "935591879f",
        "server": "2902",
        "farm": 3,
        "title": "DSC01752",
        "ispublic": 1,
        "isfriend": 0,
        "isfamily": 0
      },
      {
        "id": "34021249076",
        "owner": "61495424@N00",
        "secret": "2d56dc3f0e",
        "server": "2828",
        "farm": 3,
        "title": "DSC01750",
        "ispublic": 1,
        "isfriend": 0,
        "isfamily": 0
      },
      {
        "id": "34021244786",
        "owner": "61495424@N00",
        "secret": "8a9e3b1897",
        "server": "2923",
        "farm": 3,
        "title": "DSC01747",
        "ispublic": 1,
        "isfriend": 0,
        "isfamily": 0
      },
      {
        "id": "33905219312",
        "owner": "61495424@N00",
        "secret": "8fdbc69822",
        "server": "2809",
        "farm": 3,
        "title": "DSC01744",
        "ispublic": 1,
        "isfriend": 0,
        "isfamily": 0
      },
      {
        "id": "33905220262",
        "owner": "61495424@N00",
        "secret": "51b68e61c0",
        "server": "2892",
        "farm": 3,
        "title": "DSC01741",
        "ispublic": 1,
        "isfriend": 0,
        "isfamily": 0
      },
      {
        "id": "33905221982",
        "owner": "61495424@N00",
        "secret": "ee14a4e431",
        "server": "2855",
        "farm": 3,
        "title": "DSC01740",
        "ispublic": 1,
        "isfriend": 0,
        "isfamily": 0
      },
      {
        "id": "33905222402",
        "owner": "61495424@N00",
        "secret": "08cdccf7c8",
        "server": "2868",
        "farm": 3,
        "title": "DSC01734",
        "ispublic": 1,
        "isfriend": 0,
        "isfamily": 0
      },
      {
        "id": "34021250686",
        "owner": "61495424@N00",
        "secret": "9d71e284b0",
        "server": "2815",
        "farm": 3,
        "title": "DSC01733",
        "ispublic": 1,
        "isfriend": 0,
        "isfamily": 0
      },
      {
        "id": "33250134113",
        "owner": "61495424@N00",
        "secret": "b26735beea",
        "server": "2873",
        "farm": 3,
        "title": "DSC01731",
        "ispublic": 1,
        "isfriend": 0,
        "isfamily": 0
      },
      {
        "id": "34021251096",
        "owner": "61495424@N00",
        "secret": "45904d2561",
        "server": "2854",
        "farm": 3,
        "title": "DSC01729",
        "ispublic": 1,
        "isfriend": 0,
        "isfamily": 0
      },
      {
        "id": "33932476371",
        "owner": "61495424@N00",
        "secret": "5509fa6750",
        "server": "2918",
        "farm": 3,
        "title": "DSC01725",
        "ispublic": 1,
        "isfriend": 0,
        "isfamily": 0
      },
      {
        "id": "34021252706",
        "owner": "61495424@N00",
        "secret": "b3eeda6a8f",
        "server": "2805",
        "farm": 3,
        "title": "DSC01724",
        "ispublic": 1,
        "isfriend": 0,
        "isfamily": 0
      },
      {
        "id": "33219428374",
        "owner": "61495424@N00",
        "secret": "815b417691",
        "server": "2931",
        "farm": 3,
        "title": "DSC01722",
        "ispublic": 1,
        "isfriend": 0,
        "isfamily": 0
      },
      {
        "id": "33219429354",
        "owner": "61495424@N00",
        "secret": "c1b79df804",
        "server": "2861",
        "farm": 3,
        "title": "DSC01720",
        "ispublic": 1,
        "isfriend": 0,
        "isfamily": 0
      },
      {
        "id": "34021252906",
        "owner": "61495424@N00",
        "secret": "0a51b74a0c",
        "server": "2933",
        "farm": 3,
        "title": "DSC01719",
        "ispublic": 1,
        "isfriend": 0,
        "isfamily": 0
      },
      {
        "id": "34021253206",
        "owner": "61495424@N00",
        "secret": "761970fe64",
        "server": "2884",
        "farm": 3,
        "title": "DSC01717",
        "ispublic": 1,
        "isfriend": 0,
        "isfamily": 0
      },
      {
        "id": "33677315750",
        "owner": "61495424@N00",
        "secret": "8ba75cc2a1",
        "server": "3950",
        "farm": 4,
        "title": "DSC01716",
        "ispublic": 1,
        "isfriend": 0,
        "isfamily": 0
      },
      {
        "id": "34021254656",
        "owner": "61495424@N00",
        "secret": "8c76a4eef7",
        "server": "3956",
        "farm": 4,
        "title": "DSC01714",
        "ispublic": 1,
        "isfriend": 0,
        "isfamily": 0
      },
      {
        "id": "33677317360",
        "owner": "61495424@N00",
        "secret": "bf2319f0e5",
        "server": "2947",
        "farm": 3,
        "title": "DSC01713",
        "ispublic": 1,
        "isfriend": 0,
        "isfamily": 0
      },
      {
        "id": "33677317960",
        "owner": "61495424@N00",
        "secret": "84d5f4a3ce",
        "server": "2921",
        "farm": 3,
        "title": "DSC01711",
        "ispublic": 1,
        "isfriend": 0,
        "isfamily": 0
      },
      {
        "id": "34021257326",
        "owner": "61495424@N00",
        "secret": "a06f9609c7",
        "server": "2933",
        "farm": 3,
        "title": "DSC01708",
        "ispublic": 1,
        "isfriend": 0,
        "isfamily": 0
      },
      {
        "id": "34061780375",
        "owner": "61495424@N00",
        "secret": "2dd0d303bc",
        "server": "3955",
        "farm": 4,
        "title": "DSC01706",
        "ispublic": 1,
        "isfriend": 0,
        "isfamily": 0
      },
      {
        "id": "33677320250",
        "owner": "61495424@N00",
        "secret": "0b7b3f9bf7",
        "server": "2933",
        "farm": 3,
        "title": "DSC01700",
        "ispublic": 1,
        "isfriend": 0,
        "isfamily": 0
      },
      {
        "id": "33200782924",
        "owner": "61495424@N00",
        "secret": "5fa3d38697",
        "server": "2808",
        "farm": 3,
        "title": "DSC01685",
        "ispublic": 1,
        "isfriend": 0,
        "isfamily": 0
      },
      {
        "id": "33200785304",
        "owner": "61495424@N00",
        "secret": "281f21e352",
        "server": "2835",
        "farm": 3,
        "title": "DSC01682",
        "ispublic": 1,
        "isfriend": 0,
        "isfamily": 0
      },
      {
        "id": "33200785664",
        "owner": "61495424@N00",
        "secret": "11ed63f0da",
        "server": "2830",
        "farm": 3,
        "title": "DSC01679",
        "ispublic": 1,
        "isfriend": 0,
        "isfamily": 0
      },
      {
        "id": "33200786094",
        "owner": "61495424@N00",
        "secret": "908f91f484",
        "server": "2895",
        "farm": 3,
        "title": "DSC01673",
        "ispublic": 1,
        "isfriend": 0,
        "isfamily": 0
      },
      {
        "id": "33200786174",
        "owner": "61495424@N00",
        "secret": "d175763307",
        "server": "2821",
        "farm": 3,
        "title": "DSC01672",
        "ispublic": 1,
        "isfriend": 0,
        "isfamily": 0
      },
      {
        "id": "33200786444",
        "owner": "61495424@N00",
        "secret": "1c5c74ef41",
        "server": "2831",
        "farm": 3,
        "title": "DSC01667",
        "ispublic": 1,
        "isfriend": 0,
        "isfamily": 0
      },
      {
        "id": "33200786714",
        "owner": "61495424@N00",
        "secret": "56646a94aa",
        "server": "2808",
        "farm": 3,
        "title": "DSC01665",
        "ispublic": 1,
        "isfriend": 0,
        "isfamily": 0
      },
      {
        "id": "34003025686",
        "owner": "61495424@N00",
        "secret": "203db2509e",
        "server": "3939",
        "farm": 4,
        "title": "DSC01660",
        "ispublic": 1,
        "isfriend": 0,
        "isfamily": 0
      },
      {
        "id": "33200787324",
        "owner": "61495424@N00",
        "secret": "79c83717d3",
        "server": "2876",
        "farm": 3,
        "title": "DSC01659",
        "ispublic": 1,
        "isfriend": 0,
        "isfamily": 0
      },
      {
        "id": "33200787644",
        "owner": "61495424@N00",
        "secret": "11c2a4ab6c",
        "server": "2912",
        "farm": 3,
        "title": "DSC01655",
        "ispublic": 1,
        "isfriend": 0,
        "isfamily": 0
      },
      {
        "id": "33200783184",
        "owner": "61495424@N00",
        "secret": "b214fa1e0d",
        "server": "3953",
        "farm": 4,
        "title": "DSC01652",
        "ispublic": 1,
        "isfriend": 0,
        "isfamily": 0
      },
      {
        "id": "33200787884",
        "owner": "61495424@N00",
        "secret": "33a415caf0",
        "server": "2913",
        "farm": 3,
        "title": "DSC01650",
        "ispublic": 1,
        "isfriend": 0,
        "isfamily": 0
      },
      {
        "id": "33200788124",
        "owner": "61495424@N00",
        "secret": "b50176dd31",
        "server": "2901",
        "farm": 3,
        "title": "DSC01648",
        "ispublic": 1,
        "isfriend": 0,
        "isfamily": 0
      },
      {
        "id": "33200788344",
        "owner": "61495424@N00",
        "secret": "0d259e076f",
        "server": "3927",
        "farm": 4,
        "title": "DSC01646",
        "ispublic": 1,
        "isfriend": 0,
        "isfamily": 0
      },
      {
        "id": "33200788554",
        "owner": "61495424@N00",
        "secret": "abcf9098bc",
        "server": "2919",
        "farm": 3,
        "title": "DSC01642",
        "ispublic": 1,
        "isfriend": 0,
        "isfamily": 0
      },
      {
        "id": "33200788814",
        "owner": "61495424@N00",
        "secret": "afac643b36",
        "server": "2881",
        "farm": 3,
        "title": "DSC01636",
        "ispublic": 1,
        "isfriend": 0,
        "isfamily": 0
      },
      {
        "id": "33200789064",
        "owner": "61495424@N00",
        "secret": "dd434ab066",
        "server": "3945",
        "farm": 4,
        "title": "DSC01635",
        "ispublic": 1,
        "isfriend": 0,
        "isfamily": 0
      },
      {
        "id": "33200789274",
        "owner": "61495424@N00",
        "secret": "36474a863a",
        "server": "2807",
        "farm": 3,
        "title": "DSC01632",
        "ispublic": 1,
        "isfriend": 0,
        "isfamily": 0
      },
      {
        "id": "33200789434",
        "owner": "61495424@N00",
        "secret": "bf59e94faf",
        "server": "2857",
        "farm": 3,
        "title": "DSC01630",
        "ispublic": 1,
        "isfriend": 0,
        "isfamily": 0
      },
      {
        "id": "33200789674",
        "owner": "61495424@N00",
        "secret": "77f9df632c",
        "server": "2868",
        "farm": 3,
        "title": "DSC01629",
        "ispublic": 1,
        "isfriend": 0,
        "isfamily": 0
      },
      {
        "id": "33200783454",
        "owner": "61495424@N00",
        "secret": "7f2d002d19",
        "server": "2897",
        "farm": 3,
        "title": "DSC01625",
        "ispublic": 1,
        "isfriend": 0,
        "isfamily": 0
      },
      {
        "id": "33200790014",
        "owner": "61495424@N00",
        "secret": "43f1310f5c",
        "server": "3950",
        "farm": 4,
        "title": "DSC01622",
        "ispublic": 1,
        "isfriend": 0,
        "isfamily": 0
      },
      {
        "id": "33200790124",
        "owner": "61495424@N00",
        "secret": "0db3620223",
        "server": "2883",
        "farm": 3,
        "title": "DSC01621",
        "ispublic": 1,
        "isfriend": 0,
        "isfamily": 0
      },
      {
        "id": "34043791295",
        "owner": "61495424@N00",
        "secret": "77ecbac550",
        "server": "2919",
        "farm": 3,
        "title": "DSC01618",
        "ispublic": 1,
        "isfriend": 0,
        "isfamily": 0
      },
      {
        "id": "33200790654",
        "owner": "61495424@N00",
        "secret": "83cf984efc",
        "server": "2853",
        "farm": 3,
        "title": "DSC01609",
        "ispublic": 1,
        "isfriend": 0,
        "isfamily": 0
      },
      {
        "id": "33200790964",
        "owner": "61495424@N00",
        "secret": "0b06223ba4",
        "server": "2856",
        "farm": 3,
        "title": "DSC01607",
        "ispublic": 1,
        "isfriend": 0,
        "isfamily": 0
      },
      {
        "id": "33200791254",
        "owner": "61495424@N00",
        "secret": "cae4d64b61",
        "server": "2947",
        "farm": 3,
        "title": "DSC01605",
        "ispublic": 1,
        "isfriend": 0,
        "isfamily": 0
      },
      {
        "id": "33200791754",
        "owner": "61495424@N00",
        "secret": "98567e1c98",
        "server": "2896",
        "farm": 3,
        "title": "DSC01602",
        "ispublic": 1,
        "isfriend": 0,
        "isfamily": 0
      },
      {
        "id": "34043791745",
        "owner": "61495424@N00",
        "secret": "d485706c26",
        "server": "2811",
        "farm": 3,
        "title": "DSC01600",
        "ispublic": 1,
        "isfriend": 0,
        "isfamily": 0
      },
      {
        "id": "33200792204",
        "owner": "61495424@N00",
        "secret": "2f986858f1",
        "server": "2923",
        "farm": 3,
        "title": "DSC01599",
        "ispublic": 1,
        "isfriend": 0,
        "isfamily": 0
      },
      {
        "id": "34043792245",
        "owner": "61495424@N00",
        "secret": "655c84cf20",
        "server": "2878",
        "farm": 3,
        "title": "DSC01596",
        "ispublic": 1,
        "isfriend": 0,
        "isfamily": 0
      },
      {
        "id": "33200792794",
        "owner": "61495424@N00",
        "secret": "93b31c761b",
        "server": "2932",
        "farm": 3,
        "title": "DSC01595",
        "ispublic": 1,
        "isfriend": 0,
        "isfamily": 0
      },
      {
        "id": "34043792645",
        "owner": "61495424@N00",
        "secret": "b1877f4dfb",
        "server": "3947",
        "farm": 4,
        "title": "DSC01591",
        "ispublic": 1,
        "isfriend": 0,
        "isfamily": 0
      },
      {
        "id": "33886549352",
        "owner": "61495424@N00",
        "secret": "13459854a1",
        "server": "2897",
        "farm": 3,
        "title": "DSC01589",
        "ispublic": 1,
        "isfriend": 0,
        "isfamily": 0
      },
      {
        "id": "34043792905",
        "owner": "61495424@N00",
        "secret": "ed2996d401",
        "server": "2912",
        "farm": 3,
        "title": "DSC01588",
        "ispublic": 1,
        "isfriend": 0,
        "isfamily": 0
      },
      {
        "id": "33886549792",
        "owner": "61495424@N00",
        "secret": "fe49359ff3",
        "server": "2860",
        "farm": 3,
        "title": "DSC01583",
        "ispublic": 1,
        "isfriend": 0,
        "isfamily": 0
      },
      {
        "id": "34043793315",
        "owner": "61495424@N00",
        "secret": "52a027f7f4",
        "server": "2805",
        "farm": 3,
        "title": "DSC01579",
        "ispublic": 1,
        "isfriend": 0,
        "isfamily": 0
      },
      {
        "id": "33886550372",
        "owner": "61495424@N00",
        "secret": "cda16bef6a",
        "server": "2884",
        "farm": 3,
        "title": "DSC01576",
        "ispublic": 1,
        "isfriend": 0,
        "isfamily": 0
      },
      {
        "id": "34043793625",
        "owner": "61495424@N00",
        "secret": "5502b46abb",
        "server": "3951",
        "farm": 4,
        "title": "DSC01575",
        "ispublic": 1,
        "isfriend": 0,
        "isfamily": 0
      },
      {
        "id": "33200783764",
        "owner": "61495424@N00",
        "secret": "4c8b73a4e6",
        "server": "2805",
        "farm": 3,
        "title": "DSC01573",
        "ispublic": 1,
        "isfriend": 0,
        "isfamily": 0
      },
      {
        "id": "33886550722",
        "owner": "61495424@N00",
        "secret": "1e3ab50454",
        "server": "2855",
        "farm": 3,
        "title": "DSC01572",
        "ispublic": 1,
        "isfriend": 0,
        "isfamily": 0
      },
      {
        "id": "34043793865",
        "owner": "61495424@N00",
        "secret": "c25d350800",
        "server": "2894",
        "farm": 3,
        "title": "DSC01571",
        "ispublic": 1,
        "isfriend": 0,
        "isfamily": 0
      },
      {
        "id": "33886551032",
        "owner": "61495424@N00",
        "secret": "9381e6ff7e",
        "server": "2919",
        "farm": 3,
        "title": "DSC01564",
        "ispublic": 1,
        "isfriend": 0,
        "isfamily": 0
      },
      {
        "id": "34043794675",
        "owner": "61495424@N00",
        "secret": "328a434a7c",
        "server": "2899",
        "farm": 3,
        "title": "DSC01563",
        "ispublic": 1,
        "isfriend": 0,
        "isfamily": 0
      },
      {
        "id": "33886552552",
        "owner": "61495424@N00",
        "secret": "a5f199dbef",
        "server": "2908",
        "farm": 3,
        "title": "DSC01561",
        "ispublic": 1,
        "isfriend": 0,
        "isfamily": 0
      },
      {
        "id": "34043795215",
        "owner": "61495424@N00",
        "secret": "fb74c143c3",
        "server": "2935",
        "farm": 3,
        "title": "DSC01559",
        "ispublic": 1,
        "isfriend": 0,
        "isfamily": 0
      },
      {
        "id": "33886553372",
        "owner": "61495424@N00",
        "secret": "eb2746c186",
        "server": "2841",
        "farm": 3,
        "title": "DSC01558",
        "ispublic": 1,
        "isfriend": 0,
        "isfamily": 0
      },
      {
        "id": "34043795755",
        "owner": "61495424@N00",
        "secret": "64308668b8",
        "server": "3940",
        "farm": 4,
        "title": "DSC01548",
        "ispublic": 1,
        "isfriend": 0,
        "isfamily": 0
      },
      {
        "id": "33886554042",
        "owner": "61495424@N00",
        "secret": "f8d0fb7774",
        "server": "2807",
        "farm": 3,
        "title": "DSC01547",
        "ispublic": 1,
        "isfriend": 0,
        "isfamily": 0
      },
      {
        "id": "34043796135",
        "owner": "61495424@N00",
        "secret": "f11e136a53",
        "server": "2882",
        "farm": 3,
        "title": "DSC01542",
        "ispublic": 1,
        "isfriend": 0,
        "isfamily": 0
      },
      {
        "id": "33886554702",
        "owner": "61495424@N00",
        "secret": "b1023aae2c",
        "server": "3944",
        "farm": 4,
        "title": "DSC01540",
        "ispublic": 1,
        "isfriend": 0,
        "isfamily": 0
      },
      {
        "id": "34043796615",
        "owner": "61495424@N00",
        "secret": "24c8af896f",
        "server": "2840",
        "farm": 3,
        "title": "DSC01537",
        "ispublic": 1,
        "isfriend": 0,
        "isfamily": 0
      },
      {
        "id": "33886555492",
        "owner": "61495424@N00",
        "secret": "3812fa1920",
        "server": "2905",
        "farm": 3,
        "title": "DSC01536",
        "ispublic": 1,
        "isfriend": 0,
        "isfamily": 0
      },
      {
        "id": "34043797015",
        "owner": "61495424@N00",
        "secret": "a55c0ee48e",
        "server": "2948",
        "farm": 3,
        "title": "DSC01535",
        "ispublic": 1,
        "isfriend": 0,
        "isfamily": 0
      },
      {
        "id": "33886555972",
        "owner": "61495424@N00",
        "secret": "84aaab2e18",
        "server": "2934",
        "farm": 3,
        "title": "DSC01533",
        "ispublic": 1,
        "isfriend": 0,
        "isfamily": 0
      },
      {
        "id": "34043797475",
        "owner": "61495424@N00",
        "secret": "f03805b0ba",
        "server": "2927",
        "farm": 3,
        "title": "DSC01532",
        "ispublic": 1,
        "isfriend": 0,
        "isfamily": 0
      },
      {
        "id": "33886556842",
        "owner": "61495424@N00",
        "secret": "a03cdf7408",
        "server": "2937",
        "farm": 3,
        "title": "DSC01531",
        "ispublic": 1,
        "isfriend": 0,
        "isfamily": 0
      },
      {
        "id": "34043797985",
        "owner": "61495424@N00",
        "secret": "f82aaee32e",
        "server": "2931",
        "farm": 3,
        "title": "DSC01528",
        "ispublic": 1,
        "isfriend": 0,
        "isfamily": 0
      },
      {
        "id": "33200784034",
        "owner": "61495424@N00",
        "secret": "947237f168",
        "server": "2868",
        "farm": 3,
        "title": "DSC01527",
        "ispublic": 1,
        "isfriend": 0,
        "isfamily": 0
      },
      {
        "id": "33886557672",
        "owner": "61495424@N00",
        "secret": "45a3670019",
        "server": "2898",
        "farm": 3,
        "title": "DSC01526",
        "ispublic": 1,
        "isfriend": 0,
        "isfamily": 0
      },
      {
        "id": "34043798575",
        "owner": "61495424@N00",
        "secret": "6603be9f2d",
        "server": "3953",
        "farm": 4,
        "title": "DSC01523",
        "ispublic": 1,
        "isfriend": 0,
        "isfamily": 0
      },
      {
        "id": "33886558272",
        "owner": "61495424@N00",
        "secret": "a4a2b95a34",
        "server": "3931",
        "farm": 4,
        "title": "DSC01520",
        "ispublic": 1,
        "isfriend": 0,
        "isfamily": 0
      },
      {
        "id": "34043799015",
        "owner": "61495424@N00",
        "secret": "f9f494c805",
        "server": "2854",
        "farm": 3,
        "title": "DSC01519",
        "ispublic": 1,
        "isfriend": 0,
        "isfamily": 0
      },
      {
        "id": "33886559012",
        "owner": "61495424@N00",
        "secret": "4ef8e53a1d",
        "server": "3934",
        "farm": 4,
        "title": "DSC01515",
        "ispublic": 1,
        "isfriend": 0,
        "isfamily": 0
      },
      {
        "id": "34043800235",
        "owner": "61495424@N00",
        "secret": "a3c8947777",
        "server": "2919",
        "farm": 3,
        "title": "DSC01514",
        "ispublic": 1,
        "isfriend": 0,
        "isfamily": 0
      },
      {
        "id": "33914038771",
        "owner": "61495424@N00",
        "secret": "e54c9ce455",
        "server": "2837",
        "farm": 3,
        "title": "DSC01512",
        "ispublic": 1,
        "isfriend": 0,
        "isfamily": 0
      }
    ]
  },
  "stat": "ok"
}